tidytuesday Exercise – Prasanga Paudel’s Data Analysis Portfolio
…
In this setion, we will perform a linear reression analysis. Although it is not a good idea to use variables with too many categories, but in this dataset the variables are too complex to categorize into smaller groups, so will proceed as it is.

library(tidymodels)

#fitting linear regression
lm_fit <- linear_reg() %>% 
  set_engine("lm") %>% 
  fit(score ~ days + state + condition + measure_name, 
      data = train_data)

#getting model summary
tidy(lm_fit) %>% 
  arrange(p.value)  # Show most significant predictors first

# A tibble: 78 × 5
   term                                    estimate std.error statistic  p.value
   <chr>                                      <dbl>     <dbl>     <dbl>    <dbl>
 1 days                                       157.       8.51     18.5  5.14e-63
 2 (Intercept)                             -57216.    3096.      -18.5  6.57e-63
 3 conditionHealthcare Personnel Vaccinat…  43052.    2331.       18.5  7.39e-63
 4 measure_nameHealthcare workers given i… -14417.     783.      -18.4  1.38e-62
 5 measure_nameAverage time patients spen…    153.       8.98     17.0  7.93e-55
 6 measure_nameAverage time patients spen…    144.       9.19     15.7  6.28e-48
 7 measure_nameAverage time patients spen…     97.8      8.70     11.2  3.43e-27
 8 measure_nameAverage (median) time pati…     95.1      8.63     11.0  3.27e-26
 9 measure_namePercentage of patients who…    -92.9      8.88    -10.5  6.14e-24
10 conditionSepsis Care                      -147.      19.7      -7.47 2.30e-13
# ℹ 68 more rows
…
#fitting Lasso model
lasso_fit <- lasso_spec %>% 
  fit(score ~ days + state + condition + measure_name, 
      data = train_data)

# coefficients (non-zero ones only)
tidy(lasso_fit) %>% 
  filter(estimate != 0) %>% 
  arrange(desc(abs(estimate)))

# A tibble: 73 × 3
   term                                                         estimate penalty
   <chr>                                                           <dbl>   <dbl>
 1 measure_namePercentage of patients who left the emergency d…   -159.      0.1
 2 measure_nameAverage time patients spent in the emergency de…    151.      0.1
 3 measure_nameAverage time patients spent in the emergency de…    142.      0.1
 4 measure_nameAverage time patients spent in the emergency de…     95.7     0.1
 5 measure_namePercentage of patients who came to the emergenc…    -93.7     0.1
 6 measure_nameAverage (median) time patients spent in the eme…     93.2     0.1
 7 conditionEmergency Department                                    80.4     0.1
 8 (Intercept)                                                      68.3     0.1
 9 conditionElectronic Clinical Quality Measure                    -66.8     0.1
10 stateRI                                                          61.8     0.1
# ℹ 63 more rows
…
