Data Analysis Excerise – Prasanga Paudel’s Data Analysis Portfolio
…
We can observe that there are 14 variables altogether and there are no missing values in the dataset. We will further check for any missing values coded as 9999 for any numeric variable. We will also use scatterplot to see if there is any such replacement for missing value which can be observed as an outlier. This can be observed later during the analysis.

2.2 Confirming the structure of the dataset through observation across States

# Counting the number of observations per State
state_counts <- cdc_dataset %>%
  count(LocationDesc)

# View the result
print(state_counts)

# A tibble: 51 × 2
   LocationDesc             n
   <chr>                <int>
 1 Alabama                 50
 2 Alaska                  50
 3 Arizona                 50
 4 Arkansas                50
 5 California              50
 6 Colorado                50
 7 Connecticut             50
 8 Delaware                50
 9 District of Columbia    50
10 Florida                 50
# ℹ 41 more rows
…
To ensure data completeness, I checked for missing values in the synthetic dataset using colSums(is.na(synthetic_df)), which calculates the number of NA values in each column. ## Confirming the Structure of the Dataset Across States

# Counting the number of observations per State
state_counts <- synthetic_df %>% count(LocationDesc)

# View the result
print(state_counts)

# A tibble: 51 × 2
   LocationDesc             n
   <chr>                <int>
 1 Alabama                 50
 2 Alaska                  50
 3 Arizona                 50
 4 Arkansas                50
 5 California              50
 6 Colorado                50
 7 Connecticut             50
 8 Delaware                50
 9 District of Columbia    50
10 Florida                 50
# ℹ 41 more rows
…
