R Coding Exercise – Prasanga Paudel’s Data Analysis Portfolio
…
3.3 Table 1: Summary of missing values for infant mortality

# Calculating the number of missing values for infant_mortality by  grouping them according to year
missing_data_summary <- africadata %>% group_by(year) %>% summarize( missing_infant_mortality = sum(is.na(infant_mortality)), #gives us total missing values
    total_observations = n(), #gives us total observations
  )

# printing the result to have a look
print(missing_data_summary)

# A tibble: 57 × 3
    year missing_infant_mortality total_observations
   <int>                    <int>              <int>
 1  1960                       10                 51
 2  1961                       17                 51
 3  1962                       16                 51
 4  1963                       16                 51
 5  1964                       15                 51
 6  1965                       14                 51
 7  1966                       13                 51
 8  1967                       11                 51
 9  1968                       11                 51
10  1969                        7                 51
# ℹ 47 more rows
…
